0 
0 
179 
271
1

179
0
179
271 
1

358 
0 
179 
271 
1

537
0 
179 
271 
1

716 
0 
179 
271 
1

895 
0 
179 
271 
1

1074 
0 
179
271
1

1253 
0 
179
271 
1

1432 
0 
179 
271 
1

1611 
0 
179 
271 
1
